{
    "router-rfs:line-template-vty-router-rfs": [
      {
        "device": "netsim-iosxr-dev--1",
        "line-template": [
          {
            "name": "test_vty_01",
            "ip-group": "vty01",
            "session-timeout": "5",
            "exec-timeout": "10",
            "transport-input": "ssh",
            "transport-output": "telnet"
          }
        ]
      }
    ]
  }